{ "height":25,
 "infinite":false,
 "layers":[
        {
         "draworder":"topdown",
         "name":"Positions",
         "objects":[
                {
                 "height":32,
                 "id":1,
                 "name":"Player",
                 "rotation":0,
                 "type":"",
                 "visible":true,
                 "width":32,
                 "x":383,
                 "y":288
                }, 
                {
                 "height":32,
                 "id":3,
                 "name":"Gen1",
                 "rotation":0,
                 "type":"",
                 "visible":true,
                 "width":32,
                 "x":767.333333333333,
                 "y":255.333333333333
                }, 
                {
                 "height":32,
                 "id":4,
                 "name":"Gen2",
                 "rotation":0,
                 "type":"",
                 "visible":true,
                 "width":32,
                 "x":767.333333333333,
                 "y":350.666666666667
                }, 
                {
                 "height":32,
                 "id":5,
                 "name":"Gen3",
                 "rotation":0,
                 "type":"",
                 "visible":true,
                 "width":32,
                 "x":128,
                 "y":194.666666666667
                }, 
                {
                 "height":32,
                 "id":6,
                 "name":"Gen4",
                 "rotation":0,
                 "type":"",
                 "visible":true,
                 "width":32,
                 "x":512,
                 "y":540
                }, 
                {
                 "height":64,
                 "id":7,
                 "name":"Exit",
                 "rotation":0,
                 "type":"",
                 "visible":true,
                 "width":69.3333333333334,
                 "x":332,
                 "y":542.666666666667
                }],
         "opacity":1,
         "type":"objectgroup",
         "visible":true,
         "x":0,
         "y":0
        }, 
        {
         "data":[0, 0, 0, 0, 0, 0, 0, 0, 0, 0, 0, 0, 0, 0, 0, 0, 0, 0, 0, 0, 0, 0, 0, 0, 0, 0, 0, 0, 0, 0, 0, 0, 0, 0, 0, 0, 0, 0, 0, 0, 0, 0, 0, 0, 0, 0, 0, 0, 0, 0, 0, 0, 0, 0, 0, 0, 0, 0, 0, 0, 0, 0, 0, 0, 0, 0, 0, 0, 0, 0, 0, 0, 0, 0, 0, 0, 0, 0, 0, 0, 0, 0, 0, 0, 0, 0, 0, 0, 0, 0, 0, 0, 0, 0, 0, 0, 0, 48, 49, 49, 49, 49, 49, 49, 49, 49, 49, 50, 0, 0, 0, 0, 0, 0, 0, 0, 0, 0, 0, 0, 0, 0, 0, 0, 0, 0, 0, 62, 21, 21, 21, 21, 21, 21, 21, 21, 21, 64, 0, 0, 0, 0, 0, 0, 0, 0, 0, 0, 0, 0, 0, 0, 0, 0, 0, 0, 0, 62, 21, 21, 21, 21, 21, 21, 21, 21, 21, 64, 0, 0, 0, 0, 0, 0, 0, 0, 0, 0, 0, 0, 0, 0, 0, 0, 57, 0, 0, 62, 21, 6, 7, 7, 7, 7, 7, 8, 21, 64, 0, 0, 0, 0, 0, 0, 0, 0, 0, 0, 0, 0, 0, 48, 49, 49, 81, 49, 49, 66, 21, 20, 21, 21, 21, 21, 21, 22, 21, 65, 49, 49, 49, 49, 49, 50, 0, 0, 0, 0, 0, 0, 0, 62, 21, 21, 21, 21, 21, 21, 21, 20, 21, 48, 49, 50, 21, 22, 21, 21, 21, 21, 21, 21, 21, 82, 72, 0, 0, 0, 0, 0, 0, 62, 21, 21, 21, 21, 21, 21, 21, 20, 21, 62, 47, 64, 21, 22, 21, 21, 21, 21, 21, 21, 21, 64, 18, 0, 0, 0, 0, 0, 0, 62, 21, 21, 21, 21, 21, 21, 21, 20, 21, 76, 77, 78, 21, 22, 21, 21, 21, 21, 21, 21, 21, 64, 18, 0, 0, 0, 0, 0, 0, 62, 21, 21, 21, 21, 21, 21, 21, 20, 21, 21, 21, 21, 21, 22, 21, 21, 21, 21, 21, 21, 21, 82, 72, 0, 0, 0, 0, 0, 0, 76, 77, 77, 77, 77, 77, 52, 21, 20, 21, 21, 21, 21, 21, 22, 21, 51, 77, 77, 77, 77, 77, 78, 0, 0, 0, 0, 0, 0, 0, 0, 0, 0, 0, 0, 0, 62, 21, 34, 35, 35, 35, 35, 35, 36, 21, 64, 0, 0, 0, 0, 0, 0, 0, 0, 0, 0, 0, 0, 0, 0, 0, 0, 0, 0, 0, 62, 21, 21, 21, 21, 21, 21, 21, 21, 21, 64, 0, 0, 0, 0, 0, 0, 0, 0, 0, 0, 0, 0, 0, 0, 0, 0, 0, 0, 0, 62, 21, 51, 77, 79, 77, 52, 21, 21, 21, 64, 0, 0, 0, 0, 0, 0, 0, 0, 0, 0, 0, 0, 0, 0, 0, 0, 0, 0, 0, 76, 77, 78, 21, 61, 21, 76, 77, 77, 79, 78, 0, 0, 0, 0, 0, 0, 0, 0, 0, 0, 0, 0, 0, 0, 0, 0, 0, 0, 0, 0, 0, 0, 48, 81, 50, 0, 0, 0, 58, 0, 0, 0, 0, 0, 0, 0, 0, 0, 0, 0, 0, 0, 0, 0, 0, 0, 0, 0, 0, 0, 0, 0, 76, 77, 78, 0, 0, 0, 0, 0, 0, 0, 0, 0, 0, 0, 0, 0, 0, 0, 0, 0, 0, 0, 0, 0, 0, 0, 0, 0, 0, 0, 63, 63, 63, 0, 0, 0, 0, 0, 0, 0, 0, 0, 0, 0, 0, 0, 0, 0, 0, 0, 0, 0, 0, 0, 0, 0, 0, 0, 0, 0, 63, 63, 63, 0, 0, 0, 0, 0, 0, 0, 0, 0, 0, 0, 0, 0, 0, 0, 0, 0, 0, 0, 0, 0, 0, 0, 0, 0, 0, 0, 0, 0, 0, 0, 0, 0, 0, 0, 0, 0, 0, 0, 0, 0, 0, 0, 0, 0, 0, 0, 0, 0, 0, 0, 0, 0, 0, 0, 0, 0, 0, 0, 0, 0, 0, 0, 0, 0, 0, 0, 0, 0, 0, 0, 0, 0, 0, 0, 0, 0, 0, 0, 0, 0, 0, 0, 0, 0, 0, 0, 0, 0, 0, 0, 0, 0, 0, 0, 0, 0, 0, 0, 0, 0, 0, 0, 0, 0, 0, 0, 0, 0, 0, 0, 0, 0, 0, 0, 0, 0, 0, 0, 0, 0, 0, 0, 0, 0, 0, 0, 0, 0, 0, 0, 0, 0, 0, 0, 0, 0],
         "height":25,
         "name":"Base",
         "opacity":1,
         "type":"tilelayer",
         "visible":true,
         "width":30,
         "x":0,
         "y":0
        }, 
        {
         "data":[0, 0, 0, 0, 0, 0, 0, 0, 0, 0, 0, 0, 0, 0, 0, 0, 0, 0, 0, 0, 0, 0, 0, 0, 0, 0, 0, 0, 0, 0, 0, 0, 0, 0, 0, 0, 0, 0, 0, 0, 0, 0, 0, 0, 0, 0, 0, 0, 0, 0, 0, 0, 0, 0, 0, 0, 0, 0, 0, 0, 0, 0, 0, 0, 0, 0, 47, 74, 74, 45, 74, 74, 74, 74, 74, 74, 74, 74, 47, 0, 0, 0, 0, 0, 0, 0, 0, 0, 0, 0, 0, 0, 0, 0, 0, 0, 47, 0, 0, 0, 0, 0, 0, 0, 0, 0, 0, 0, 47, 0, 0, 0, 0, 0, 0, 0, 0, 0, 0, 0, 0, 0, 0, 0, 0, 0, 47, 0, 0, 0, 0, 0, 0, 0, 0, 0, 0, 0, 47, 0, 0, 0, 0, 0, 0, 0, 0, 0, 0, 0, 0, 0, 0, 0, 0, 0, 47, 0, 0, 0, 31, 31, 0, 31, 31, 0, 0, 0, 47, 0, 0, 0, 0, 0, 0, 0, 0, 0, 0, 0, 47, 74, 74, 74, 0, 74, 74, 0, 0, 0, 43, 43, 4, 45, 44, 0, 0, 0, 44, 74, 74, 74, 74, 74, 47, 0, 0, 0, 0, 0, 47, 0, 69, 0, 0, 0, 0, 0, 0, 0, 0, 0, 0, 0, 0, 0, 0, 0, 0, 0, 0, 0, 0, 0, 74, 0, 0, 0, 0, 0, 47, 0, 69, 0, 0, 0, 0, 0, 0, 0, 0, 0, 0, 0, 0, 0, 0, 0, 0, 0, 0, 0, 0, 0, 0, 0, 0, 0, 0, 0, 47, 0, 0, 0, 0, 0, 31, 31, 31, 0, 0, 0, 0, 0, 0, 0, 32, 32, 32, 32, 0, 0, 0, 0, 47, 0, 0, 0, 0, 0, 47, 0, 0, 0, 0, 0, 43, 45, 43, 0, 0, 0, 0, 0, 0, 0, 46, 46, 46, 46, 0, 0, 0, 0, 74, 0, 0, 0, 0, 0, 47, 31, 31, 31, 0, 0, 0, 0, 0, 0, 0, 0, 0, 0, 0, 0, 0, 0, 0, 0, 0, 31, 31, 0, 0, 0, 0, 0, 0, 0, 74, 74, 74, 74, 74, 74, 47, 0, 0, 0, 31, 31, 0, 31, 31, 0, 0, 0, 47, 74, 74, 74, 74, 74, 74, 0, 0, 0, 0, 0, 0, 0, 0, 0, 0, 0, 47, 0, 0, 0, 45, 43, 4, 44, 43, 0, 0, 0, 47, 0, 0, 0, 0, 0, 0, 0, 0, 0, 0, 0, 0, 0, 0, 0, 0, 0, 47, 0, 0, 0, 0, 0, 0, 0, 0, 0, 0, 0, 47, 0, 0, 0, 0, 0, 0, 0, 0, 0, 0, 0, 0, 0, 0, 0, 0, 0, 47, 31, 31, 31, 31, 0, 31, 0, 0, 0, 0, 0, 47, 0, 0, 0, 0, 0, 0, 0, 0, 0, 0, 0, 0, 0, 0, 0, 0, 0, 74, 74, 74, 47, 74, 59, 74, 47, 74, 47, 0, 47, 74, 0, 0, 0, 0, 0, 0, 0, 0, 0, 0, 0, 0, 0, 0, 0, 0, 0, 0, 0, 0, 47, 0, 0, 0, 47, 0, 47, 0, 47, 0, 0, 0, 0, 0, 0, 0, 0, 0, 0, 0, 0, 0, 0, 0, 0, 0, 0, 0, 0, 0, 47, 0, 0, 0, 47, 0, 47, 47, 47, 0, 0, 0, 0, 0, 0, 0, 0, 0, 0, 0, 0, 0, 0, 0, 0, 0, 0, 0, 0, 0, 47, 0, 0, 0, 47, 0, 0, 0, 0, 0, 0, 0, 0, 0, 0, 0, 0, 0, 0, 0, 0, 0, 0, 0, 0, 0, 0, 0, 0, 0, 47, 31, 0, 0, 47, 0, 0, 0, 0, 0, 0, 0, 0, 0, 0, 0, 0, 0, 0, 0, 0, 0, 0, 0, 0, 0, 0, 0, 0, 0, 74, 74, 74, 74, 74, 0, 0, 0, 0, 0, 0, 0, 0, 0, 0, 0, 0, 0, 0, 0, 0, 0, 0, 0, 0, 0, 0, 0, 0, 0, 0, 0, 0, 0, 0, 0, 0, 0, 0, 0, 0, 0, 0, 0, 0, 0, 0, 0, 0, 0, 0, 0, 0, 0, 0, 0, 0, 0, 0, 0, 0, 0, 0, 0, 0, 0, 0, 0, 0, 0, 0, 0, 0, 0, 0, 0, 0, 0, 0, 0, 0, 0, 0, 0, 0, 0, 0, 0, 0, 0, 0, 0, 0, 0, 0, 0, 0, 0, 0, 0, 0, 0, 0, 0, 0, 0, 0, 0, 0, 0, 0],
         "height":25,
         "name":"Obstacles",
         "opacity":1,
         "type":"tilelayer",
         "visible":true,
         "width":30,
         "x":0,
         "y":0
        }],
 "nextobjectid":8,
 "orientation":"orthogonal",
 "renderorder":"left-up",
 "tiledversion":"1.1.1",
 "tileheight":32,
 "tilesets":[
        {
         "columns":14,
         "firstgid":1,
         "image":"..\/Sprites\/Objects\/scifitiles-sheet_0.png",
         "imageheight":192,
         "imagewidth":448,
         "margin":0,
         "name":"scifitiles-sheet_0",
         "spacing":0,
         "tilecount":84,
         "tileheight":32,
         "tilewidth":32
        }],
 "tilewidth":32,
 "type":"map",
 "version":1,
 "width":30
}